<svg width="128" height="50" viewBox="0 0 128 50" fill="none" xmlns="http://www.w3.org/2000/svg">
<path d="M14.1373 24.3036C18.2108 28.2173 21.0995 31.1592 22.8034 33.1294C23.682 34.1145 24.1213 34.9532 24.1213 35.6454C24.1213 36.311 23.5889 37.1097 22.5239 38.0415C21.4589 38.9468 20.5803 39.3994 19.8881 39.3994C19.2225 39.3994 18.4105 38.8403 17.452 37.722L8.66611 27.6981V35.4856C8.66611 36.1246 8.63949 36.5905 8.58624 36.8834C8.55961 37.1763 8.43981 37.5224 8.22681 37.9217C7.85408 38.6406 6.81574 39 5.11181 39C3.24813 39 2.15654 38.4941 1.83706 37.4824C1.67731 37.0564 1.59744 36.3775 1.59744 35.4457V13.2413C1.59744 12.6289 1.61075 12.1763 1.63738 11.8835C1.69062 11.564 1.82374 11.2046 2.03674 10.8052C2.40947 10.0863 3.44781 9.72692 5.15174 9.72692C7.01542 9.72692 8.12032 10.2195 8.46643 11.2046C8.59955 11.6572 8.66611 12.3494 8.66611 13.2812V20.909C12.287 16.8355 15.2156 13.4942 17.452 10.8851C18.3839 9.79348 19.1959 9.24769 19.8881 9.24769C20.5803 9.24769 21.4589 9.71361 22.5239 10.6454C23.5889 11.5507 24.1213 12.3494 24.1213 13.0416C24.1213 13.7072 23.722 14.5059 22.9233 15.4378C21.3791 17.2216 18.9829 19.671 15.7348 22.786L14.1373 24.3036ZM39.1625 20.1902C39.3223 18.6992 40.3739 17.9537 42.3175 17.9537C43.3558 17.9537 44.1279 18.0336 44.6338 18.1934C45.1396 18.3531 45.4857 18.6326 45.6721 19.032C45.8851 19.4314 46.0049 19.7908 46.0315 20.1103C46.0848 20.4031 46.1114 20.8558 46.1114 21.4681V35.4457C46.1114 36.058 46.0848 36.524 46.0315 36.8435C46.0049 37.1363 45.8984 37.4824 45.712 37.8818C45.3393 38.574 44.4208 38.9201 42.9565 38.9201C41.5188 38.9201 40.547 38.7471 40.0411 38.401C39.5619 38.0282 39.2823 37.4957 39.2025 36.8035C38.2174 38.2146 36.5667 38.9201 34.2504 38.9201C31.9607 38.9201 29.8308 37.8685 27.8607 35.7652C25.8905 33.6619 24.9054 31.2258 24.9054 28.4569C24.9054 25.6614 25.8905 23.2253 27.8607 21.1486C29.8575 19.0453 32.0406 17.9937 34.4102 17.9937C35.3154 17.9937 36.1407 18.1534 36.8862 18.4729C37.6317 18.7924 38.1508 19.0986 38.4437 19.3914C38.7366 19.6577 38.9762 19.9239 39.1625 20.1902ZM31.8942 28.4968C31.8942 29.3754 32.2403 30.1741 32.9325 30.893C33.6247 31.5852 34.4634 31.9313 35.4485 31.9313C36.4336 31.9313 37.2456 31.5719 37.8846 30.8531C38.5502 30.1342 38.883 29.3488 38.883 28.4968C38.883 27.6182 38.5635 26.8062 37.9245 26.0607C37.3122 25.3153 36.4735 24.9425 35.4086 24.9425C34.3702 24.9425 33.5183 25.3153 32.8527 26.0607C32.2137 26.8062 31.8942 27.6182 31.8942 28.4968ZM49.4542 37.123C48.9483 36.8035 48.6954 36.2977 48.6954 35.6054C48.6954 34.9132 49.2012 33.8616 50.213 32.4505C50.5058 31.9979 50.9717 31.7716 51.6107 31.7716C52.2763 31.7716 53.1682 32.1044 54.2864 32.77C55.4046 33.409 56.4163 33.7284 57.3216 33.7284C58.9456 33.7284 59.7577 33.409 59.7577 32.77C59.7577 32.2641 58.8657 31.8914 57.0819 31.6518C55.4046 31.4122 53.7406 30.7865 52.0899 29.7748C51.3178 29.2956 50.6789 28.5501 50.173 27.5384C49.6672 26.5 49.4142 25.2753 49.4142 23.8643C49.4142 19.6577 52.3029 17.5544 58.0803 17.5544C59.9706 17.5544 61.9142 18.007 63.911 18.9122C64.8428 19.3382 65.3088 19.8707 65.3088 20.5096C65.3088 21.1486 65.0159 21.934 64.4302 22.8659C63.8444 23.7977 63.2454 24.2636 62.633 24.2636C62.3136 24.2636 61.7145 24.0639 60.8359 23.6646C59.984 23.2652 59.0521 23.0655 58.0404 23.0655C56.4696 23.0655 55.6842 23.3584 55.6842 23.9441C55.6842 24.7429 56.5894 25.262 58.3998 25.5016C60.157 25.688 61.8609 26.1939 63.5116 27.0192C64.2837 27.3919 64.9227 28.0442 65.4286 28.9761C65.961 29.8813 66.2273 31.0261 66.2273 32.4106C66.2273 33.795 65.961 34.9798 65.4286 35.9649C64.9227 36.9233 64.2039 37.6422 63.272 38.1214C61.5681 38.9468 59.4249 39.3594 56.8423 39.3594C54.2864 39.3594 51.8237 38.614 49.4542 37.123Z" fill="#068BD0"/>
<rect x="83.5697" y="26.752" width="12.1173" height="8.07822" rx="1.664" fill="#068BD0"/>
<rect x="74.4427" y="6.51733" width="48.5475" height="37.44" rx="4.576" stroke="#068BD0" stroke-width="1.94133"/>
<rect x="70.4426" y="15.6444" width="57.5573" height="6.05866" rx="3.02933" fill="#068BD0"/>
</svg>
