<svg width="28" height="28" viewBox="0 0 28 28" fill="none" xmlns="http://www.w3.org/2000/svg">
<rect width="28" height="28" rx="6" fill="#08AB3F"/>
<path d="M7 20C7 20.5523 7.44772 21 8 21L17 21C17.5523 21 18 20.5523 18 20C18 19.4477 17.5523 19 17 19L9 19L9 11C9 10.4477 8.55229 10 8 10C7.44772 10 7 10.4477 7 11L7 20ZM19.2929 7.29289L7.29289 19.2929L8.70711 20.7071L20.7071 8.70711L19.2929 7.29289Z" fill="white"/>
</svg>
