<svg width="28" height="28" viewBox="0 0 28 28" fill="none" xmlns="http://www.w3.org/2000/svg">
<rect x="28" y="28" width="28" height="28" rx="6" transform="rotate(-180 28 28)" fill="#EE0D16"/>
<path d="M21 8C21 7.44772 20.5523 7 20 7L11 7C10.4477 7 10 7.44772 10 8C10 8.55229 10.4477 9 11 9L19 9L19 17C19 17.5523 19.4477 18 20 18C20.5523 18 21 17.5523 21 17L21 8ZM8.70711 20.7071L20.7071 8.70711L19.2929 7.29289L7.29289 19.2929L8.70711 20.7071Z" fill="white"/>
</svg>
